epoch	train	validation	learning rate
0	6248.939104352678	3669.1328125	0.001
1	2679.2701241629466	1619.8463134765625	0.001
2	1289.3106863839287	916.1495361328125	0.001
3	745.6780133928571	621.5657958984375	0.001
4	510.232657296317	431.6485900878906	0.001
5	393.4675598144531	345.2381286621094	0.001
6	324.7969273158482	302.27191162109375	0.001
7	289.7883954729353	265.1766662597656	0.001
8	261.9864698137556	255.60964965820312	0.001
9	243.77723257882255	237.04937744140625	0.001
10	225.26482718331474	220.802490234375	0.001
11	214.77706473214286	201.68971252441406	0.001
12	205.9056658063616	200.9080047607422	0.001
13	194.84320940290178	190.80838012695312	0.001
14	189.84208461216517	183.73365783691406	0.001
15	179.1220441545759	177.8592529296875	0.001
16	174.5154266357422	172.545654296875	0.001
17	169.75809587751115	165.1626739501953	0.001
18	164.04036385672433	165.65902709960938	0.001
19	160.2508588518415	159.2149658203125	0.001
20	154.97260393415178	151.1873779296875	0.001
21	152.87596348353796	152.07568359375	0.001
22	149.6661158970424	144.5091094970703	0.001
23	146.51096888950892	144.62606811523438	0.001
24	143.2113974434989	135.90011596679688	0.001
25	141.42681884765625	147.7206573486328	0.001
26	139.5161590576172	140.74880981445312	0.001
27	136.72871834891183	133.32408142089844	0.001
28	134.89045933314733	131.4986572265625	0.001
29	133.77582659040178	130.1342315673828	0.001
30	131.55791364397322	128.3450469970703	0.001
31	131.56725202287947	128.9664764404297	0.001
32	129.35758536202567	123.26026153564453	0.001
33	126.85038321358817	129.2850341796875	0.001
34	126.53546360560826	124.39646911621094	0.001
35	124.79869951520648	125.10529327392578	0.001
36	124.76724025181362	122.67411041259766	0.001
37	121.42271532331195	126.0847396850586	0.001
38	121.7122552054269	122.67945098876953	0.001
39	121.2145254952567	117.54814910888672	0.001
40	119.33892822265625	118.41241455078125	0.001
41	120.44666617257255	119.30139923095703	0.001
42	118.75419398716518	118.4370346069336	0.001
43	116.71066720145089	118.42180633544922	0.001
44	117.50926208496094	114.75126647949219	0.001
45	115.48148563929966	118.26529693603516	0.001
46	116.16036442347935	116.08369445800781	0.001
47	113.11726924351284	112.83523559570312	0.001
48	114.47859300885882	114.62844848632812	0.001
49	112.98419080461774	114.30360412597656	0.001
50	56.093653981278585	42.4885311126709	1e-04
51	38.60813866592035	37.619516372680664	1e-04
52	36.58334085417957	37.51435852050781	1e-04
53	34.85686134710544	34.44356393814087	1e-04
54	34.153444848409514	35.69637489318848	1e-04
55	33.635271537594676	33.434271812438965	1e-04
56	32.86212474543874	32.168922424316406	1e-04
57	32.125819648184425	32.389530658721924	1e-04
58	32.054702060978585	31.760842323303223	1e-04
59	31.563277360869616	32.44999647140503	1e-04
60	32.30336547479397	32.40352249145508	1e-04
61	31.532105469122165	30.964057445526123	1e-04
62	31.864076753941976	30.01492214202881	1e-04
63	31.1083586157822	31.80166006088257	1e-04
64	30.829230378313763	32.20953369140625	1e-04
65	31.371134409090367	31.23449945449829	1e-04
66	30.743806280740877	33.70421028137207	1e-05
67	31.14272094354397	31.901434898376465	1e-05
68	30.616757323102252	31.312971115112305	1e-05
69	29.631887947640767	32.79310894012451	1e-06
70	30.6499222080882	30.155595779418945	1e-06
71	30.474057965162324	32.22399663925171	1e-06
72	30.877826411549638	30.422732830047607	1e-07
73	